{
    "response": {
        "status": "ok",
        "userTier": "developer",
        "total": 2231672,
        "startIndex": 1,
        "pageSize": 10,
        "currentPage": 1,
        "pages": 223168,
        "orderBy": "newest",
        "results": [
            {
                "id": "football/live/2020/nov/18/england-v-iceland-nations-league-live",
                "type": "liveblog",
                "sectionId": "football",
                "sectionName": "Football",
                "webPublicationDate": "2020-11-18T21:05:14Z",
                "webTitle": "England v Iceland: Nations League – live updates!",
                "webUrl": "https://www.theguardian.com/football/live/2020/nov/18/england-v-iceland-nations-league-live",
                "apiUrl": "https://content.guardianapis.com/football/live/2020/nov/18/england-v-iceland-nations-league-live",
                "isHosted": false,
                "pillarId": "pillar/sport",
                "pillarName": "Sport"
            },
            {
                "id": "football/live/2020/nov/18/wales-v-finland-israel-v-scotland-and-more-nations-league-live",
                "type": "liveblog",
                "sectionId": "football",
                "sectionName": "Football",
                "webPublicationDate": "2020-11-18T21:04:41Z",
                "webTitle": "Wales v Finland, Israel v Scotland and more: Nations League – live!",
                "webUrl": "https://www.theguardian.com/football/live/2020/nov/18/wales-v-finland-israel-v-scotland-and-more-nations-league-live",
                "apiUrl": "https://content.guardianapis.com/football/live/2020/nov/18/wales-v-finland-israel-v-scotland-and-more-nations-league-live",
                "isHosted": false,
                "pillarId": "pillar/sport",
                "pillarName": "Sport"
            },
            {
                "id": "sport/live/2020/nov/18/novak-djokovic-v-daniil-medvedev-atp-tour-finals-live",
                "type": "liveblog",
                "sectionId": "sport",
                "sectionName": "Sport",
                "webPublicationDate": "2020-11-18T21:03:36Z",
                "webTitle": "Novak Djokovic v Daniil Medvedev: ATP Tour Finals – live!",
                "webUrl": "https://www.theguardian.com/sport/live/2020/nov/18/novak-djokovic-v-daniil-medvedev-atp-tour-finals-live",
                "apiUrl": "https://content.guardianapis.com/sport/live/2020/nov/18/novak-djokovic-v-daniil-medvedev-atp-tour-finals-live",
                "isHosted": false,
                "pillarId": "pillar/sport",
                "pillarName": "Sport"
            },
            {
                "id": "world/live/2020/nov/18/coronavirus-live-news-senator-chuck-grassley-tests-positive-airlines-offer-covid-testing",
                "type": "liveblog",
                "sectionId": "world",
                "sectionName": "World news",
                "webPublicationDate": "2020-11-18T21:01:38Z",
                "webTitle": "Coronavirus live news: Italy registers 753 Covid-related deaths; Pfizer vaccine 'has 95% efficacy'",
                "webUrl": "https://www.theguardian.com/world/live/2020/nov/18/coronavirus-live-news-senator-chuck-grassley-tests-positive-airlines-offer-covid-testing",
                "apiUrl": "https://content.guardianapis.com/world/live/2020/nov/18/coronavirus-live-news-senator-chuck-grassley-tests-positive-airlines-offer-covid-testing",
                "isHosted": false,
                "pillarId": "pillar/news",
                "pillarName": "News"
            },
            {
                "id": "us-news/live/2020/nov/18/us-election-donald-trump-joe-biden-chris-krebs-coronavirus-covid-19-live-updates",
                "type": "liveblog",
                "sectionId": "us-news",
                "sectionName": "US news",
                "webPublicationDate": "2020-11-18T21:01:22Z",
                "webTitle": "New York schools to close again as US approaches 250,000 Covid deaths – live",
                "webUrl": "https://www.theguardian.com/us-news/live/2020/nov/18/us-election-donald-trump-joe-biden-chris-krebs-coronavirus-covid-19-live-updates",
                "apiUrl": "https://content.guardianapis.com/us-news/live/2020/nov/18/us-election-donald-trump-joe-biden-chris-krebs-coronavirus-covid-19-live-updates",
                "isHosted": false,
                "pillarId": "pillar/news",
                "pillarName": "News"
            },
            {
                "id": "news/2020/nov/18/corrections-and-clarifications",
                "type": "article",
                "sectionId": "news",
                "sectionName": "News",
                "webPublicationDate": "2020-11-18T21:00:53Z",
                "webTitle": "Corrections and clarifications",
                "webUrl": "https://www.theguardian.com/news/2020/nov/18/corrections-and-clarifications",
                "apiUrl": "https://content.guardianapis.com/news/2020/nov/18/corrections-and-clarifications",
                "isHosted": false,
                "pillarId": "pillar/news",
                "pillarName": "News"
            },
            {
                "id": "us-news/2020/nov/18/new-york-city-public-schools-close-again-covid-cases-rise",
                "type": "article",
                "sectionId": "us-news",
                "sectionName": "US news",
                "webPublicationDate": "2020-11-18T20:27:17Z",
                "webTitle": "New York City public schools to close again as coronavirus cases rise",
                "webUrl": "https://www.theguardian.com/us-news/2020/nov/18/new-york-city-public-schools-close-again-covid-cases-rise",
                "apiUrl": "https://content.guardianapis.com/us-news/2020/nov/18/new-york-city-public-schools-close-again-covid-cases-rise",
                "isHosted": false,
                "pillarId": "pillar/news",
                "pillarName": "News"
            },
            {
                "id": "sport/2020/nov/18/uk-government-set-to-announce-rescue-package-for-ailing-sports",
                "type": "article",
                "sectionId": "sport",
                "sectionName": "Sport",
                "webPublicationDate": "2020-11-18T20:09:37Z",
                "webTitle": "UK government set to announce rescue package for ailing sports",
                "webUrl": "https://www.theguardian.com/sport/2020/nov/18/uk-government-set-to-announce-rescue-package-for-ailing-sports",
                "apiUrl": "https://content.guardianapis.com/sport/2020/nov/18/uk-government-set-to-announce-rescue-package-for-ailing-sports",
                "isHosted": false,
                "pillarId": "pillar/sport",
                "pillarName": "Sport"
            },
            {
                "id": "politics/2020/nov/18/labour-in-fresh-turmoil-as-starmer-refuses-to-restore-whip-to-corbyn",
                "type": "article",
                "sectionId": "politics",
                "sectionName": "Politics",
                "webPublicationDate": "2020-11-18T20:08:43Z",
                "webTitle": "Labour in fresh turmoil as Starmer refuses to restore whip to Corbyn",
                "webUrl": "https://www.theguardian.com/politics/2020/nov/18/labour-in-fresh-turmoil-as-starmer-refuses-to-restore-whip-to-corbyn",
                "apiUrl": "https://content.guardianapis.com/politics/2020/nov/18/labour-in-fresh-turmoil-as-starmer-refuses-to-restore-whip-to-corbyn",
                "isHosted": false,
                "pillarId": "pillar/news",
                "pillarName": "News"
            },
            {
                "id": "australia-news/2020/nov/19/morning-mail-morrisons-foi-fail-coercive-control-warning-queensland-origin-victory",
                "type": "article",
                "sectionId": "australia-news",
                "sectionName": "Australia news",
                "webPublicationDate": "2020-11-18T20:00:31Z",
                "webTitle": "Morning mail: Morrison's FoI fail, coercive control warning, Queensland Origin victory",
                "webUrl": "https://www.theguardian.com/australia-news/2020/nov/19/morning-mail-morrisons-foi-fail-coercive-control-warning-queensland-origin-victory",
                "apiUrl": "https://content.guardianapis.com/australia-news/2020/nov/19/morning-mail-morrisons-foi-fail-coercive-control-warning-queensland-origin-victory",
                "isHosted": false,
                "pillarId": "pillar/news",
                "pillarName": "News"
            }
        ]
    }
}
